{
    "KPlugin": {
        "Authors": [
            {
                "Email": "hein@kde.org",
                "Name": "Eike Hein",
                "Name[ca@valencia]": "Eike Hein",
                "Name[ca]": "Eike Hein",
                "Name[cs]": "Eike Hein",
                "Name[de]": "Eike Hein",
                "Name[en_GB]": "Eike Hein",
                "Name[es]": "Eike Hein",
                "Name[et]": "Eike Hein",
                "Name[fr]": "Eike Hein",
                "Name[it]": "Eike Hein",
                "Name[ko]": "Eike Hein",
                "Name[nl]": "Eike Hein",
                "Name[pl]": "Eike Hein",
                "Name[pt]": "Eike Hein",
                "Name[sk]": "Eike Hein",
                "Name[sl]": "Eike Hein",
                "Name[sv]": "Eike Hein",
                "Name[uk]": "Eike Hein",
                "Name[x-test]": "xxEike Heinxx",
                "Name[zh_CN]": "Eike Hein"
            }
        ],
        "Description": "A Kirogi plugin to support Parrot UAVs",
        "Description[ca@valencia]": "Un connector del Kirogi per a admetre l'UAV Parrot",
        "Description[ca]": "Un connector del Kirogi per a admetre l'UAV Parrot",
        "Description[en_GB]": "A Kirogi plugin to support Parrot UAVs",
        "Description[es]": "Un complemento de Kirogi para usar los vehículos voladores no tripulados Parrot",
        "Description[et]": "Kirogi plugin Parroti droonide toetusega",
        "Description[fr]": "Un module externe Kirogi pour prendre en charge des drones Parrot",
        "Description[it]": "Un'estensione di Kirogi per supportare gli APR Parrot",
        "Description[ko]": "Parrot UAV를 지원하는 기러기 플러그인",
        "Description[nl]": "Een Kirogi plug-in om Parrot UAV's te ondersteunen",
        "Description[pl]": "Wtyczka Kirogi do obsługi Parrot UAVs",
        "Description[pt]": "Um 'plugin' do Kirogi para ter suporte para os UAV's da Parrot",
        "Description[sl]": "Kirogi vtičnik za podporo naprav Parrot UAV",
        "Description[sv]": "Ett Kirogi insticksprogram för att stödja Parrot drönare",
        "Description[uk]": "Додаток до Kirogi для підтримки дронів Parrot",
        "Description[x-test]": "xxA Kirogi plugin to support Parrot UAVsxx",
        "Description[zh_CN]": "用于支持 Parrot 无人机的 Kirogi 插件",
        "Icon": "uav",
        "Name": "Parrot",
        "Name[ca@valencia]": "Parrot",
        "Name[ca]": "Parrot",
        "Name[de]": "Parrot",
        "Name[en_GB]": "Parrot",
        "Name[es]": "Parrot",
        "Name[et]": "Parrot",
        "Name[fr]": "Parrot",
        "Name[it]": "Parrot",
        "Name[ko]": "Parrot",
        "Name[nl]": "Papegaai",
        "Name[pl]": "Parrot",
        "Name[pt]": "Parrot",
        "Name[sk]": "Parrot",
        "Name[sl]": "Parrot",
        "Name[sv]": "Parrot",
        "Name[uk]": "Parrot",
        "Name[x-test]": "xxParrotxx",
        "Name[zh_CN]": "Parrot",
        "ServiceTypes": [
            "Kirogi/VehicleSupport"
        ]
    }
}
